…
``` r
instacart = 
  instacart |> 
  as_tibble()
```

``` r
instacart |> 
  count(aisle) |> 
  arrange(desc(n))
```

    ## # A tibble: 134 × 2
    ##    aisle                              n
    ##    <chr>                          <int>
    ##  1 fresh vegetables              150609
    ##  2 fresh fruits                  150473
    ##  3 packaged vegetables fruits     78493
    ##  4 yogurt                         55240
    ##  5 packaged cheese                41699
    ##  6 water seltzer sparkling water  36617
    ##  7 milk                           32644
    ##  8 chips pretzels                 31269
    ##  9 soy lactosefree                26240
    ## 10 bread                          23635
    ## # ℹ 124 more rows
…
    ## `summarise()` has grouped output by 'year'. You can override using the
    ## `.groups` argument.

``` r
 avrage_brfss
```

    ## # A tibble: 443 × 3
    ## # Groups:   year [9]
    ##     year state avg_data_value
    ##    <int> <chr>          <dbl>
    ##  1  2002 AK              27.9
    ##  2  2002 AL              18.5
    ##  3  2002 AR              24.1
    ##  4  2002 AZ              24.1
    ##  5  2002 CA              22.7
    ##  6  2002 CO              23.1
    ##  7  2002 CT              29.1
    ##  8  2002 DC              29.3
    ##  9  2002 DE              20.9
    ## 10  2002 FL              25.7
    ## # ℹ 433 more rows
…
